=========================================================================================================================
=   Absolute fission rates (1/s) for case 'Irradation for cell (81622<29123)' (#1/2)                                    =
=   autogeneratedIrradation                                                                                             =
-------------------------------------------------------------------------------------------------------------------------
                       0.0E+00d    1.0E-03d    2.4E+01d    4.7E+01d    7.1E+01d    9.4E+01d    1.2E+02d    1.4E+02d    1.7E+02d    1.9E+02d    2.1E+02d    2.4E+02d   
rn-222                 0.0000E+00  2.3030E-37  3.6366E-20  3.7593E-19  1.3879E-18  3.4303E-18  6.8496E-18  1.1985E-17  1.9169E-17  2.8736E-17  4.1021E-17  5.6364E-17
ra-223                 0.0000E+00  8.0368E-33  5.2498E-13  5.8425E-12  2.0372E-11  4.5458E-11  8.0546E-11  1.2434E-10  1.7536E-10  2.3216E-10  2.9345E-10  3.5806E-10
ra-224                 0.0000E+00  1.4665E-33  1.3547E-12  1.7599E-11  6.9061E-11  1.7406E-10  3.4862E-10  6.0671E-10  9.6046E-10  1.4204E-09  1.9954E-09  2.6934E-09
ra-225                 0.0000E+00  1.8893E-26  6.4846E-13  1.2346E-11  6.2107E-11  1.8291E-10  4.0689E-10  7.6331E-10  1.2782E-09  1.9742E-09  2.8714E-09  3.9870E-09
ra-226                 0.0000E+00  2.8967E-30  3.7555E-17  2.9623E-16  9.8681E-16  2.3116E-15  4.4669E-15  7.6449E-15  1.2036E-14  1.7829E-14  2.5216E-14  3.4393E-14
ra-228                 0.0000E+00  1.0184E-20  5.4995E-12  2.1491E-11  4.7267E-11  8.2160E-11  1.2554E-10  1.7683E-10  2.3546E-10  3.0091E-10  3.7269E-10  4.5034E-10
ac-225                 0.0000E+00  4.0206E-32  6.5056E-16  9.0249E-15  5.2561E-14  1.7528E-13  4.2548E-13  8.4934E-13  1.4887E-12  2.3805E-12  3.5574E-12  5.0475E-12
ac-226                 0.0000E+00  4.6448E-29  5.6508E-13  3.1219E-12  1.2231E-11  3.6127E-11  8.4111E-11  1.6516E-10  2.8744E-10  4.5819E-10  6.8375E-10  9.6967E-10
ac-227                 0.0000E+00  5.5701E-24  1.1899E-11  4.8049E-11  1.0455E-10  1.7785E-10  2.6478E-10  3.6256E-10  4.6876E-10  5.8121E-10  6.9805E-10  8.1763E-10
th-227                 0.0000E+00  3.4702E-26  9.4082E-10  6.4062E-09  1.7754E-08  3.4741E-08  5.6636E-08  8.2614E-08  1.1188E-07  1.4371E-07  1.7747E-07  2.1259E-07
th-228                 0.0000E+00  8.4260E-26  6.9437E-09  6.6542E-08  2.3392E-07  5.5750E-07  1.0796E-06  1.8371E-06  2.8619E-06  4.1817E-06  5.8202E-06  7.7977E-06
th-229                 0.0000E+00  1.0986E-15  5.8854E-07  2.3192E-06  5.2496E-06  9.5656E-06  1.5561E-05  2.3623E-05  3.4213E-05  4.7861E-05  6.5149E-05  8.6704E-05
th-230                 0.0000E+00  1.1744E-16  6.4143E-08  2.5148E-07  5.5453E-07  9.6654E-07  1.4819E-06  2.0961E-06  2.8062E-06  3.6106E-06  4.5092E-06  5.5034E-06
th-231                 0.0000E+00  5.3771E-05  7.8059E-02  7.3613E-02  6.9420E-02  6.5466E-02  6.1738E-02  5.8223E-02  5.4908E-02  5.1782E-02  4.8835E-02  4.6055E-02
th-232                 0.0000E+00  6.8537E-07  1.5717E-02  3.0552E-02  4.4556E-02  5.7776E-02  7.0256E-02  8.2040E-02  9.3165E-02  1.0367E-01  1.1359E-01  1.2296E-01
th-233                 0.0000E+00  2.3805E-11  2.4732E-05  4.8098E-05  7.0154E-05  9.0975E-05  1.1063E-04  1.2919E-04  1.4671E-04  1.6325E-04  1.7888E-04  1.9363E-04
th-234                 0.0000E+00  6.3403E-07  1.0859E-02  1.6360E-02  1.9145E-02  2.0554E-02  2.1264E-02  2.1621E-02  2.1798E-02  2.1884E-02  2.1924E-02  2.1941E-02
pa-228                 0.0000E+00  3.3399E-34  1.2403E-18  3.5715E-18  6.0433E-18  8.4090E-18  1.0605E-17  1.2622E-17  1.4465E-17  1.6145E-17  1.7670E-17  1.9051E-17
pa-229                 0.0000E+00  1.0151E-23  3.8827E-12  8.1479E-12  1.2065E-11  1.5656E-11  1.8943E-11  2.1945E-11  2.4680E-11  2.7166E-11  2.9420E-11  3.1456E-11
pa-230                 0.0000E+00  3.1217E-19  4.8221E-07  1.4709E-06  2.5425E-06  3.5741E-06  4.5337E-06  5.4155E-06  6.2217E-06  6.9563E-06  7.6236E-06  8.2281E-06
pa-231                 0.0000E+00  2.8495E-11  1.8553E-03  3.6855E-03  5.3661E-03  6.9067E-03  8.3163E-03  9.6034E-03  1.0776E-02  1.1842E-02  1.2807E-02  1.3679E-02
pa-232                 0.0000E+00  5.2879E-14  1.7870E-02  3.7218E-02  5.4988E-02  7.1279E-02  8.6188E-02  9.9804E-02  1.1221E-01  1.2349E-01  1.3371E-01  1.4294E-01
pa-233                 0.0000E+00  7.4788E-16  2.5140E-05  8.6602E-05  1.6763E-04  2.5841E-04  3.5359E-04  4.5030E-04  5.4700E-04  6.4288E-04  7.3750E-04  8.3065E-04
u-230                  0.0000E+00  3.8330E-27  1.6019E-10  8.9887E-10  2.0895E-09  3.4933E-09  4.9510E-09  6.3782E-09  7.7359E-09  9.0085E-09  1.0192E-08  1.1288E-08
u-231                  0.0000E+00  9.1452E-18  2.4077E-09  7.3719E-09  1.4377E-08  2.3262E-08  3.3880E-08  4.6099E-08  5.9796E-08  7.4863E-08  9.1200E-08  1.0872E-07
u-232                  0.0000E+00  2.3829E-15  9.4278E-03  4.2632E-02  9.8024E-02  1.7380E-01  2.6833E-01  3.8013E-01  5.0786E-01  6.5033E-01  8.0644E-01  9.7522E-01
u-233                  0.0000E+00  2.0173E-03  4.5106E+01  8.5764E+01  1.2263E+02  1.5618E+02  1.8679E+02  2.1476E+02  2.4036E+02  2.6381E+02  2.8532E+02  3.0506E+02
u-234                  0.0000E+00  7.5939E-04  1.7461E+01  3.3965E+01  4.9567E+01  6.4392E+01  7.8600E+01  9.2371E+01  1.0589E+02  1.1937E+02  1.3299E+02  1.4699E+02
u-235                  1.1280E+11  1.1280E+11  1.0637E+11  1.0031E+11  9.4594E+10  8.9203E+10  8.4119E+10  7.9325E+10  7.4804E+10  7.0541E+10  6.6521E+10  6.2730E+10
u-236                  0.0000E+00  2.2863E+01  5.2357E+05  1.0163E+06  1.4800E+06  1.9163E+06  2.3267E+06  2.7128E+06  3.0759E+06  3.4174E+06  3.7385E+06  4.0403E+06
u-237                  0.0000E+00  5.7786E-01  5.7225E+03  7.1242E+03  8.1046E+03  8.9983E+03  9.8366E+03  1.0625E+04  1.1366E+04  1.2063E+04  1.2719E+04  1.3335E+04
u-238                  3.8836E+09  3.8836E+09  3.8823E+09  3.8810E+09  3.8797E+09  3.8784E+09  3.8770E+09  3.8757E+09  3.8744E+09  3.8731E+09  3.8718E+09  3.8705E+09
u-239                  0.0000E+00  6.4844E+04  1.5556E+06  1.5551E+06  1.5546E+06  1.5540E+06  1.5535E+06  1.5530E+06  1.5525E+06  1.5520E+06  1.5514E+06  1.5509E+06
u-240                  0.0000E+00  6.6509E-06  2.6867E-01  2.6858E-01  2.6849E-01  2.6840E-01  2.6831E-01  2.6822E-01  2.6813E-01  2.6804E-01  2.6795E-01  2.6786E-01
np-234                 0.0000E+00  4.4451E-29  4.7327E-12  3.4871E-11  9.8212E-11  1.9504E-10  3.2471E-10  4.8648E-10  6.7953E-10  9.0301E-10  1.1560E-09  1.4376E-09
np-235                 0.0000E+00  1.0460E-18  8.4416E-06  4.7975E-05  1.2565E-04  2.4422E-04  4.0557E-04  6.1108E-04  8.6166E-04  1.1578E-03  1.4998E-03  1.8874E-03
np-236                 0.0000E+00  1.1863E-14  9.0205E-02  4.8194E-01  1.1889E+00  2.1837E+00  3.4387E+00  4.9293E+00  6.6333E+00  8.5309E+00  1.0604E+01  1.2836E+01
np-237                 0.0000E+00  1.0474E-05  3.1767E+03  8.6383E+03  1.4958E+04  2.1958E+04  2.9572E+04  3.7744E+04  4.6423E+04  5.5563E+04  6.5120E+04  7.5051E+04
np-238                 0.0000E+00  5.5382E-08  4.1083E+04  1.2471E+05  2.2289E+05  3.3200E+05  4.5091E+05  5.7872E+05  7.1464E+05  8.5792E+05  1.0078E+06  1.1637E+06
np-239                 0.0000E+00  8.6468E+00  1.3963E+06  1.3972E+06  1.3967E+06  1.3963E+06  1.3958E+06  1.3953E+06  1.3949E+06  1.3944E+06  1.3939E+06  1.3935E+06
pu-236                 0.0000E+00  2.1045E-19  7.9752E-03  4.9242E-02  1.3289E-01  2.6276E-01  4.4170E-01  6.7197E-01  9.5536E-01  1.2932E+00  1.6864E+00  2.1355E+00
pu-237                 0.0000E+00  2.1362E-15  6.9447E-01  2.5599E+00  4.9135E+00  7.3938E+00  9.8298E+00  1.2147E+01  1.4321E+01  1.6350E+01  1.8242E+01  2.0013E+01
pu-238                 0.0000E+00  5.8437E-14  8.9563E+02  5.9832E+03  1.6584E+04  3.3237E+04  5.6377E+04  8.6430E+04  1.2384E+05  1.6909E+05  2.2272E+05  2.8535E+05
pu-239                 0.0000E+00  2.4736E+00  2.3014E+10  4.7357E+10  6.9182E+10  8.8747E+10  1.0628E+11  1.2200E+11  1.3609E+11  1.4872E+11  1.6003E+11  1.7017E+11
pu-240                 0.0000E+00  3.6880E-08  1.7712E+05  7.2364E+05  1.5841E+06  2.7051E+06  4.0399E+06  5.5480E+06  7.1936E+06  8.9462E+06  1.0779E+07  1.2668E+07
pu-241                 0.0000E+00  5.1505E-11  8.5847E+06  7.0316E+07  2.2874E+08  5.1366E+08  9.4383E+08  1.5292E+09  2.2730E+09  3.1730E+09  4.2233E+09  5.4148E+09
pu-242                 0.0000E+00  2.3985E-21  1.3610E+01  2.2970E+02  1.1460E+03  3.4963E+03  8.1674E+03  1.6134E+04  2.8408E+04  4.5995E+04  6.9872E+04  1.0096E+05
pu-243                 0.0000E+00  9.1173E-26  1.0218E+00  1.7705E+01  8.9110E+01  2.7304E+02  6.3948E+02  1.2654E+03  2.2308E+03  3.6152E+03  5.4957E+03  7.9451E+03
pu-244                 0.0000E+00  5.5324E-36  2.2498E-06  8.0764E-05  6.2606E-04  2.6163E-03  7.8201E-03  1.8937E-02  3.9690E-02  7.4872E-02  1.3037E-01  2.1315E-01
pu-246                 0.0000E+00  0.0000E+00  3.6822E-35  1.7793E-31  2.2847E-29  6.8109E-28  9.1820E-27  7.5204E-26  4.3766E-25  1.9862E-24  7.4622E-24  2.4170E-23
pu-247                 0.0000E+00  0.0000E+00  3.3663E-37  2.4987E-33  3.8244E-31  1.2592E-29  1.8097E-28  1.5497E-27  9.3190E-27  4.3366E-26  1.6618E-25  5.4696E-25
am-240                 0.0000E+00  4.3022E-31  3.1773E-05  6.5605E-04  3.4945E-03  1.0954E-02  2.5874E-02  5.1262E-02  9.0088E-02  1.4515E-01  2.1895E-01  3.1369E-01
am-241                 0.0000E+00  4.2090E-21  2.3587E+01  3.9297E+02  1.9350E+03  5.8252E+03  1.3426E+04  2.6165E+04  4.5442E+04  7.2567E+04  1.0871E+05  1.5489E+05
am-242m                0.0000E+00  3.1746E-25  4.9833E+01  1.5021E+03  1.0067E+04  3.6851E+04  9.7356E+04  2.0991E+05  3.9411E+05  6.6957E+05  1.0549E+06  1.5670E+06
am-242                 0.0000E+00  1.0490E-24  3.3335E+01  6.0198E+02  3.0463E+03  9.2970E+03  2.1604E+04  4.2332E+04  7.3807E+04  1.1821E+05  1.7749E+05  2.5334E+05
am-243                 0.0000E+00  6.5142E-32  2.6272E-02  9.3399E-01  7.1662E+00  2.9631E+01  8.7604E+01  2.0979E+02  4.3474E+02  8.1076E+02  1.3954E+03  2.2549E+03
cm-240                 0.0000E+00  1.4341E-45  4.8629E-11  3.4425E-09  3.7462E-08  1.9276E-07  6.6222E-07  1.7676E-06  3.9708E-06  7.8722E-06  1.4197E-05  2.3774E-05
cm-241                 0.0000E+00  1.2017E-41  4.0031E-07  2.7876E-05  2.9892E-04  1.5181E-03  5.1548E-03  1.3616E-02  3.0306E-02  5.9581E-02  1.0665E-01  1.7738E-01
cm-242                 0.0000E+00  2.4942E-31  2.7521E-01  1.0178E+01  7.7913E+01  3.1789E+02  9.2325E+02  2.1672E+03  4.3963E+03  8.0197E+03  1.3495E+04  2.1311E+04
cm-243                 0.0000E+00  2.6151E-37  9.5095E-03  7.2140E-01  8.3894E+00  4.5991E+01  1.6784E+02  4.7454E+02  1.1263E+03  2.3533E+03  4.4627E+03  7.8417E+03
cm-244                 0.0000E+00  7.2085E-41  4.6906E-04  3.5440E-02  4.1968E-01  2.3574E+00  8.8374E+00  2.5701E+01  6.2793E+01  1.3512E+02  2.6397E+02  4.7797E+02
cm-245                 0.0000E+00  1.2890E-45  2.8846E-04  4.3560E-02  7.6739E-01  5.6820E+00  2.6282E+01  9.0456E+01  2.5416E+02  6.1597E+02  1.3339E+03  2.6442E+03
cm-246                 0.0000E+00  3.5139E-56  2.7136E-10  8.3847E-08  2.2499E-06  2.2484E-05  1.3137E-04  5.4775E-04  1.8115E-03  5.0596E-03  1.2426E-02  2.7582E-02
cm-247                 0.0000E+00  1.0402E-62  2.9675E-12  1.8678E-09  7.6056E-08  1.0223E-06  7.5206E-06  3.7867E-05  1.4693E-04  4.7147E-04  1.3090E-03  3.2434E-03
cm-248                 0.0000E+00  6.8514E-73  2.1968E-17  2.8165E-14  1.7406E-12  3.1481E-11  2.9174E-10  1.7749E-09  8.0859E-09  2.9829E-08  9.3698E-08  2.5935E-07
cm-249                 0.0000E+00  0.0000E+00  3.8898E-22  5.0586E-19  3.1408E-17  5.6941E-16  5.2842E-15  3.2178E-14  1.4669E-13  5.4141E-13  1.7013E-12  4.7106E-12
cm-250                 0.0000E+00  0.0000E+00  1.1658E-27  3.0972E-24  2.9128E-22  7.0920E-21  8.2751E-20  6.0773E-19  3.2466E-18  1.3750E-17  4.8791E-17  1.5063E-16
bk-245                 0.0000E+00  0.0000E+00  8.0608E-41  8.1816E-37  1.4919E-34  5.6440E-33  9.1070E-32  8.6149E-31  5.6539E-30  2.8445E-29  1.1696E-28  4.1044E-28
bk-246                 0.0000E+00  0.0000E+00  2.8000E-36  2.2500E-32  3.6538E-30  1.2770E-28  1.9452E-27  1.7613E-26  1.1168E-25  5.4647E-25  2.1959E-24  7.5588E-24
bk-247                 0.0000E+00  0.0000E+00  3.7383E-30  2.0559E-26  2.8922E-24  9.3408E-23  1.3538E-21  1.1847E-20  7.3284E-20  3.5195E-19  1.3938E-18  4.7427E-18
bk-248                 0.0000E+00  0.0000E+00  1.6691E-26  9.1239E-23  1.2769E-20  4.1026E-19  5.9149E-18  5.1491E-17  3.1685E-16  1.5137E-15  5.9631E-15  2.0183E-14
bk-248m                0.0000E+00  0.0000E+00  3.3845E-27  1.1333E-23  1.1541E-21  2.9120E-20  3.4559E-19  2.5566E-18  1.3681E-17  5.7829E-17  2.0433E-16  6.2711E-16
bk-249                 0.0000E+00  0.0000E+00  1.5542E-20  4.0721E-17  3.7782E-15  9.0757E-14  1.0448E-12  7.5717E-12  3.9916E-11  1.6683E-10  5.8430E-10  1.7806E-09
bk-250                 0.0000E+00  0.0000E+00  1.5682E-21  4.3001E-18  4.0509E-16  9.8051E-15  1.1340E-13  8.2427E-13  4.3548E-12  1.8231E-11  6.3931E-11  1.9502E-10
cf-246                 0.0000E+00  0.0000E+00  6.1925E-41  6.8125E-37  1.2308E-34  4.5725E-33  7.2614E-32  6.7853E-31  4.4133E-30  2.2062E-29  9.0319E-29  3.1608E-28
cf-248                 0.0000E+00  0.0000E+00  2.0758E-28  1.5324E-24  2.4103E-22  8.3042E-21  1.2577E-19  1.1377E-18  7.2266E-18  3.5482E-17  1.4321E-16  4.9551E-16
cf-249                 0.0000E+00  0.0000E+00  1.2109E-20  6.5512E-17  9.0884E-15  2.8946E-13  4.1373E-12  3.5708E-11  2.1786E-10  1.0321E-09  4.0318E-09  1.3533E-08
cf-250                 0.0000E+00  0.0000E+00  2.1726E-21  1.2381E-17  1.7463E-15  5.6087E-14  8.0573E-13  6.9778E-12  4.2678E-11  2.0255E-10  7.9244E-10  2.6631E-09
cf-251                 0.0000E+00  0.0000E+00  1.0500E-21  1.3603E-17  2.7716E-15  1.1428E-13  1.9767E-12  1.9801E-11  1.3632E-10  7.1397E-10  3.0371E-09  1.0971E-08
cf-252                 0.0000E+00  0.0000E+00  0.0000E+00  3.2393E-21  1.0031E-18  5.5692E-17  1.2143E-15  1.4707E-14  1.1893E-13  7.1636E-13  3.4485E-12  1.3919E-11
cf-253                 0.0000E+00  0.0000E+00  0.0000E+00  2.3926E-23  1.0648E-20  7.5376E-19  1.9658E-17  2.7365E-16  2.4757E-15  1.6364E-14  8.5198E-14  3.6775E-13
cf-254                 0.0000E+00  0.0000E+00  0.0000E+00  1.1548E-29  7.7455E-27  7.2921E-25  2.3673E-23  3.9341E-22  4.1279E-21  3.0980E-20  1.8020E-19  8.5789E-19
es-251                 0.0000E+00  0.0000E+00  0.0000E+00  2.0414E-35  1.5205E-32  1.4865E-30  4.8699E-29  8.0504E-28  8.3369E-27  6.1481E-26  3.5051E-25  1.6334E-24
es-252                 0.0000E+00  0.0000E+00  0.0000E+00  5.2640E-32  5.0424E-29  5.9703E-27  2.2875E-25  4.3135E-24  5.0009E-23  4.0691E-22  2.5300E-21  1.2737E-20
es-253                 0.0000E+00  0.0000E+00  0.0000E+00  9.2565E-24  5.8944E-21  5.2888E-19  1.6407E-17  2.6117E-16  2.6310E-15  1.8999E-14  1.0654E-13  4.8988E-13
es-254m                0.0000E+00  0.0000E+00  0.0000E+00  7.8183E-27  5.9127E-24  5.8355E-22  1.9242E-20  3.1960E-19  3.3216E-18  2.4565E-17  1.4036E-16  6.5532E-16
es-254                 0.0000E+00  0.0000E+00  0.0000E+00  8.0486E-28  8.1158E-25  9.9539E-23  3.9209E-21  7.5665E-20  8.9506E-19  7.4150E-18  4.6866E-17  2.3955E-16
es-255                 0.0000E+00  0.0000E+00  0.0000E+00  1.4291E-30  1.6472E-27  2.1584E-25  8.8342E-24  1.7455E-22  2.0955E-21  1.7521E-20  1.1135E-19  5.7078E-19
--------------------
               total   1.1669E+11  1.1669E+11  1.3328E+11  1.5162E+11  1.6789E+11  1.8235E+11  1.9523E+11  2.0674E+11  2.1706E+11  2.2632E+11  2.3466E+11  2.4220E+11
=========================================================================================================================
.
.
*************************************************************************************************************************
********************                                                                                 ********************
********************  